^C:\USERS\VAMSI\PROGRAMS\MISSIONRND\EXTERNAL_SORT\EXTERNAL_SORT\DEBUG\EXTERNALSORT.OBJ|C:\USERS\VAMSI\PROGRAMS\MISSIONRND\EXTERNAL_SORT\EXTERNAL_SORT\DEBUG\MAIN.OBJ
C:\USERS\VAMSI\PROGRAMS\MISSIONRND\EXTERNAL_SORT\DEBUG\EXTERNAL_SORT.EXE
C:\USERS\VAMSI\PROGRAMS\MISSIONRND\EXTERNAL_SORT\DEBUG\EXTERNAL_SORT.ILK
C:\USERS\VAMSI\PROGRAMS\MISSIONRND\EXTERNAL_SORT\DEBUG\EXTERNAL_SORT.PDB
